229220 32931 386
261677 293552 407
965078 390942 525
660681 957048 525
251157 964790 525
519651 727935 509
533687 34092 470
301867 264887 407
474078 47532 449
583829 506704 470
571816 664306 509
357040 585067 470
80497 561171 470
404489 950827 525
804614 957323 525
469544 445690 444
998602 352779 525
827213 156053 509
323463 816690 509
561267 236110 470
489098 786789 509
654206 910410 525
375741 400538 436
547483 498755 470
512910 523759 439
71459 638142 509
517023 292319 470
851495 110607 525
331286 267178 407
473103 682030 509
307096 182729 443
533777 355434 470
148408 84046 375
377891 78607 443
843229 673290 525
306232 504555 449
385498 318072 441
442666 666428 509
564712 677405 509
947480 653464 525
317123 819721 509
909030 464792 525
86647 950786 525
251058 33494 443
690643 538532 509
206104 378951 443
853426 237613 525
162359 196190 365
546525 500199 470
321212 550707 470
431108 455326 400
716044 912277 525
64192 707347 509
661220 991523 525
88745 391704 443
706897 585180 509
444778 363631 449
933002 192405 525
484144 956064 525
589479 340554 470
881949 212973 525
31467 719310 509
588065 405399 470
611276 167773 470
909194 512462 525
370845 18816 443
935130 113336 525
54669 130528 354
217280 399322 443
102 463620 449
398055 616711 470
866751 200527 525
711103 141785 509
683798 519879 509
119879 155724 375
948233 512574 525
191084 509918 449
949224 646369 525
299563 722638 509
808141 509694 509
645990 278685 509
654271 665845 442
778978 297558 509
197128 735313 509
834412 574572 509
805805 169153 509
175956 84490 383
402524 942837 525
522082 210935 470
374555 99199 443
459443 267537 449
748866 979626 525
616062 314725 470
82315 360631 443
340472 548069 470
377147 245761 441
754307 708570 424
604120 151126 470
166072 960600 525
208120 648507 509
249798 169332 443
571518 559452 421
543971 52293 470
237291 44609 443
964968 511845 525
119799 460894 449
891287 938155 476
832440 105658 509
561428 631874 509
650366 644860 385
534132 238654 470
612373 134408 470
879745 307915 525
215938 621174 470
176883 985696 525
589912 297358 470
374773 848870 525
961054 85503 525
701615 417045 509
651715 254632 509
713024 560221 509
649806 464501 509
83539 752021 509
227694 370111 443
989984 491711 525
341998 41914 443
544078 327049 470
602468 393512 470
798390 922244 525
874968 69350 525
202283 8165 383
870887 891541 445
950896 797526 525
394121 546366 470
804929 163025 509
861636 73051 525
946646 863701 507
239364 933579 525
194554 682472 509
507234 545399 470
783374 215389 509
245184 194090 443
789133 637999 504
658613 680736 442
801335 931655 525
187846 249034 443
869466 520932 525
648044 344388 509
516264 556402 452
956685 779415 525
599867 240019 470
510647 741872 509
282842 556333 470
454535 771793 509
11024 486723 449
530417 419328 470
935197 566818 525
823347 254434 509
140284 498400 449
565111 943051 525
852834 78646 525
61772 192824 383
798483 557693 509
823552 495944 509
890803 176461 525
210313 638820 509
828951 781007 468
900499 187242 525
282636 347735 441
746614 429126 509
989182 598914 525
823195 932762 525
627175 810488 504
617104 685246 509
493207 560471 470
181880 247679 443
732197 301459 509
752530 29490 509
43614 110013 354
568800 660523 509
576190 553725 421
23537 636111 509
81549 889608 525
42399 480889 449
625531 186128 470
34401 237494 443
275792 703806 509
271047 728844 509
653022 378371 509
160258 526325 470
68630 209160 383
82762 456324 449
898784 407484 525
554703 335622 470
576498 281733 470
165172 981417 525
72278 583638 470
776051 509980 509
477350 937254 525
139230 131374 344
711323 490963 509
893494 526001 525
702081 366125 509
23808 514809 470
220772 875678 525
813434 571158 509
177221 437774 449
143768 993389 525
864310 445977 525
162253 413761 449
902776 354131 525
846545 694953 525
252482 332578 407
820856 74382 509
923810 577832 525
142566 260327 443
733175 30226 509
533526 185463 470
984097 646658 525
512042 405148 470
718131 455287 509
14308 943738 525
162616 446542 449
177493 594653 470
701153 170463 509
198704 392995 443
214213 846281 525
835318 451130 509
18386 571919 470
154216 440428 449
406998 386262 436
145529 605984 470
761261 521050 509
468498 222290 449
877679 501679 525
268801 407345 441
429406 375932 449
681894 893080 525
247617 416596 449
497700 91316 449
950186 619381 525
