508247 82883 449
684987 19258 509
435474 425997 387
799762 814999 406
609504 769662 509
869800 275594 525
196275 104198 383
788683 716140 468
712199 918365 525
743661 867298 525
857013 340273 525
970302 910768 507
137048 762943 509
360832 895341 525
665540 443952 509
682975 999675 525
728386 528162 509
868668 424621 525
790016 225153 509
547095 362210 470
126029 38489 354
725237 538134 509
433461 1659 449
239077 332163 407
655594 448421 509
14774 718758 509
939839 198983 525
324662 906049 525
69013 277014 443
282160 512810 470
357375 700114 509
840810 580910 525
793287 465084 509
749581 934242 525
412396 658004 509
459290 377028 449
917761 966229 507
345828 172233 443
870309 608053 525
212030 649790 509
108841 73407 354
783731 22818 509
251748 334004 407
143580 601685 470
826600 478350 509
192536 166417 365
875912 449699 525
160399 240957 443
800991 833470 450
403357 475332 449
787470 367474 509
344278 620331 470
640450 781088 504
793891 682798 504
35202 885266 525
857333 783100 525
818861 543719 509
345100 800463 509
843459 691102 525
813314 528465 509
481301 598394 470
434417 811711 509
932734 527075 525
214668 907000 525
660267 748339 504
271575 200964 443
211839 456594 449
271670 285631 389
856074 586633 525
722601 916161 525
999366 487210 525
744624 305825 509
37829 140145 354
474493 904686 525
654208 87616 509
662040 370530 509
769905 26766 509
879914 573301 525
349151 553083 470
883184 271114 525
590760 306789 470
811557 16114 509
356924 613771 470
943252 331951 525
43055 208505 383
580140 243041 470
117741 439164 449
498338 194226 449
424561 567596 470
668989 809037 504
689179 231686 509
130152 523652 470
628280 631756 341
670018 799131 504
864642 925075 476
41918 18745 324
897474 41258 525
246191 616174 470
264279 361632 441
455146 998850 525
926073 669626 525
531469 721344 509
304593 775021 509
208644 767204 509
92659 686154 509
294636 172150 443
53818 809616 509
524244 488815 470
325409 369007 441
722353 331490 509
188391 965408 525
786257 123930 509
854829 709307 525
734585 926606 525
474771 823712 509
451463 479230 444
553322 359099 470
816571 926522 525
140334 767638 509
3950 626129 470
314544 354456 441
782996 579892 509
737557 107210 509
312883 1753 443
807243 867307 525
324111 409937 441
834614 737199 468
380949 132021 443
837262 829457 419
426282 482723 444
561365 865802 525
716495 978393 525
392831 644379 509
627323 950040 525
769625 501608 509
833565 159264 509
150935 560318 470
517133 574362 452
961214 392928 525
313478 420486 449
591786 200613 470
768030 841222 525
518716 410124 470
917992 64702 525
49552 698713 509
377995 656498 509
563705 480511 470
647960 321202 509
413534 325638 449
825567 717892 468
442286 955908 525
479728 139706 449
105505 227691 386
533976 311751 470
444089 938179 525
277405 957622 525
710697 54722 509
282722 611698 470
411768 682219 509
548977 84789 470
918606 596435 525
810536 965777 525
138051 640848 509
971566 918612 507
87296 931862 525
359361 821709 509
360195 303371 441
396520 119972 443
917705 67914 525
880684 775202 525
230672 823894 509
155228 175883 383
368455 46323 443
396244 593206 470
348814 494701 449
719293 681239 504
66579 790101 509
732830 279337 509
945218 216082 525
693003 497782 509
666612 294403 509
320351 221747 443
516014 121179 470
161490 913012 525
531949 601180 452
342435 929253 525
299800 956397 525
84939 229415 386
692113 477187 509
489591 626093 470
600051 728396 509
941022 560004 525
815005 180939 509
629463 529014 509
357829 372801 410
719237 246896 509
658256 901794 525
195854 997535 525
477851 926048 525
920696 998273 507
394520 47758 443
705534 514057 509
916713 29017 525
76467 56430 335
577656 142649 470
236569 812786 509
338607 853450 525
655354 605014 509
445914 981599 525
161263 714776 509
285483 882630 525
237004 94709 443
959982 327370 525
127159 230347 386
778594 897876 525
880059 904383 445
877257 707970 525
462816 315508 449
569099 14968 470
571543 59865 470
748408 235790 509
763570 592406 509
560525 215766 470
504848 227227 449
417834 345947 449
838609 312717 525
593540 159980 470
123323 804415 509
717047 806021 468
216758 268542 443
857029 329523 525
130950 866047 525
520169 573187 452
739100 810565 468
68619 775843 509
731854 356745 509
800397 190779 509
809717 566286 509
283042 24988 443
142955 927182 525
879623 400042 525
189929 630535 509
691324 25737 509
336304 744863 509
912769 247958 525
582975 377286 470
45099 332675 443
498949 244521 449
658623 801048 504
453202 955295 525
