655327 976674 525
573095 523717 452
101712 616218 470
92117 637122 509
475284 136229 449
868610 413376 525
205494 605328 470
455325 229274 449
487429 308067 449
483111 275167 449
687448 270134 509
667275 468179 509
158740 444254 449
789181 654224 504
912147 225123 525
916985 443023 525
639759 313351 509
291902 185764 443
322255 203920 443
5681 390843 443
65117 205450 383
221319 671425 509
467949 341243 449
645442 398825 509
38270 612248 470
160597 807853 509
420565 899612 525
318543 444910 449
610955 286922 470
53864 332910 443
82190 747882 509
866365 468044 525
280591 311628 389
300977 47043 443
754052 628042 504
499273 472158 426
65426 525987 470
932265 618228 525
829045 733455 468
113779 627799 509
735746 653513 504
612350 473376 470
558068 491372 470
457527 101178 449
87762 785142 509
23118 223399 386
912665 750321 525
889748 739138 525
281496 740495 509
433412 342151 449
431592 119185 449
7820 970755 525
362476 247214 441
239024 832622 509
832868 621659 509
71377 265026 443
682249 246483 509
197144 973900 525
667432 689331 398
329928 11888 443
825992 599719 509
197201 598931 470
888656 199394 525
33998 265297 443
335881 155178 443
334791 514458 470
220783 808843 509
236018 358067 441
722967 826060 468
75221 49619 340
194502 847875 525
677598 323988 509
15364 697019 509
178399 474890 449
360238 998971 525
754711 394149 509
66594 508828 449
257328 136669 443
506818 11974 449
718271 579843 509
798141 101892 509
910059 891155 445
561168 887615 525
251654 149879 443
344812 957430 525
6906 824368 509
843071 15834 525
521898 464413 470
15128 455517 449
189445 84415 383
913593 289201 525
155078 433854 449
431967 771219 509
627844 209606 509
582780 139751 470
244114 228053 443
977047 770561 525
575215 335738 470
730600 885082 525
472245 786220 509
143558 488596 449
687045 746225 504
379176 230623 443
544480 863171 525
932029 755998 525
803334 541261 509
803688 279954 509
436125 634325 509
564649 369502 470
53632 748723 509
131722 219718 386
839147 656544 525
928272 172360 525
164915 865069 525
93504 472376 449
505925 250321 449
911594 291948 525
887146 671055 525
569760 817789 509
93667 70773 351
285033 854221 525
706156 637155 504
480960 103664 449
689167 290649 509
945803 440409 525
276515 876243 525
754265 653284 504
527091 735453 509
861770 740718 525
203617 590965 470
303545 39090 443
32907 626555 509
390551 394243 361
606161 45497 470
993247 751999 525
792723 432956 509
494294 975232 525
682395 132594 509
374833 728874 509
784974 72038 509
678638 303591 509
591818 244981 470
145278 557904 470
984996 610974 525
273558 365411 441
190181 157337 370
621877 253895 470
875625 149325 525
517518 712699 509
417176 639869 509
912116 541979 525
442478 653429 509
921034 398696 525
605764 758622 509
271512 842283 525
490033 372981 449
339072 63579 443
702846 825846 504
394166 511892 449
363146 333281 441
911289 550428 525
317411 330272 384
827888 267359 509
218836 367695 443
69316 930915 525
401125 285475 441
145527 379009 443
542176 120656 470
464961 529467 470
255137 273929 407
19970 569130 470
111327 483040 449
972638 505978 525
714407 199106 509
305364 718310 509
923243 502080 525
810112 685761 504
98092 821834 509
356456 86579 443
671773 784165 504
281545 247564 407
658658 247149 509
948330 293037 525
515449 934108 525
239349 432201 449
111448 263491 443
411157 606293 470
24259 239880 443
606022 420414 470
56982 58453 304
59348 635923 509
43106 30755 324
350701 972516 525
912617 785358 525
593064 669717 509
481867 90965 449
252713 814394 509
891928 326532 525
302372 613188 470
881271 821837 525
349325 290685 441
346010 427651 449
840560 445464 525
833192 273289 509
747123 907038 525
212762 53413 383
140876 185812 383
168363 634170 509
116571 553528 470
431659 770422 509
680223 805092 504
211409 32707 383
355117 554780 470
80284 281350 443
409353 749857 509
499900 898193 525
425363 864430 525
288716 845504 525
